LISST exponential model
…
decay_models %>%
  glance(model)

## # A tibble: 32 x 12
## # Groups:   bin [32]
##      bin r.squared adj.r.squared sigma statistic p.value    df  logLik
##    <int>     <dbl>         <dbl> <dbl>     <dbl>   <dbl> <int>   <dbl>
##  1     1     0.527         0.527 1.17      9978.       0     2 -14092.
##  2     2     0.511         0.511 1.36      9347.       0     2 -15422.
##  3     3     0.492         0.492 1.65      8644.       0     2 -17164.
##  4     4     0.771         0.771 0.247    22122.       0     2   -147.
##  5     5     0.859         0.859 0.219    40045.       0     2    644.
##  6     6     0.653         0.653 0.425    12414.       0     2  -3714.
##  7     7     0.428         0.428 2.14      6675.       0     2 -19457.
##  8     8     0.378         0.378 2.25      5384.       0     2 -19758.
##  9     9     0.335         0.335 2.14      4469.       0     2 -19393.
## 10    10     0.283         0.283 1.95      3521.       0     2 -18631.
## # ... with 22 more rows, and 4 more variables: AIC <dbl>, BIC <dbl>,
## #   deviance <dbl>, df.residual <int>
…
