LISST exponential model
…
decay_models %>%
  glance(model)

## # A tibble: 32 x 12
## # Groups:   bin [32]
##      bin r.squared adj.r.squared  sigma statistic   p.value    df logLik
##    <int>     <dbl>         <dbl>  <dbl>     <dbl>     <dbl> <int>  <dbl>
##  1     1     0.137         0.137 0.0409      763. 4.93e-156     2  8540.
##  2     2     0.510         0.510 0.0364     4992. 0.            2  9095.
##  3     3     0.732         0.732 0.0417    13139. 0.            2  8444.
##  4     4     0.778         0.778 0.0699    16794. 0.            2  5960.
##  5     5     0.811         0.811 0.0730    20579. 0.            2  5756.
##  6     6     0.840         0.840 0.0711    25152. 0.            2  5883.
##  7     7     0.888         0.888 0.0437    37978. 0.            2  8222.
##  8     8     0.883         0.883 0.0512    36164. 0.            2  7456.
##  9     9     0.895         0.895 0.0461    41094. 0.            2  7960.
## 10    10     0.888         0.888 0.0400    38195. 0.            2  8646.
## # ... with 22 more rows, and 4 more variables: AIC <dbl>, BIC <dbl>,
## #   deviance <dbl>, df.residual <int>
…
