LISST exponential model
…
decay_models %>%
  glance(model)

## # A tibble: 32 x 12
## # Groups:   bin [32]
##      bin r.squared adj.r.squared sigma statistic   p.value    df logLik
##    <int>     <dbl>         <dbl> <dbl>     <dbl>     <dbl> <int>  <dbl>
##  1     1  0.00954      0.00939   0.473     63.6  1.80e- 15     2 -4421.
##  2     2  0.00315      0.00300   0.456     20.8  5.10e-  6     2 -4178.
##  3     3  0.000187     0.0000356 0.432      1.23 2.66e-  1     2 -3821.
##  4     4  0.0358       0.0357    0.371    245.   2.89e- 54     2 -2815.
##  5     5  0.0483       0.0481    0.380    335.   6.04e- 73     2 -2972.
##  6     6  0.0588       0.0586    0.385    412.   6.30e- 89     2 -3060.
##  7     7  0.0213       0.0212    0.415    144.   9.31e- 33     2 -3558.
##  8     8  0.0544       0.0542    0.404    380.   3.05e- 82     2 -3387.
##  9     9  0.0744       0.0743    0.406    531.   5.07e-113     2 -3408.
## 10    10  0.0818       0.0817    0.414    588.   1.58e-124     2 -3546.
## # ... with 22 more rows, and 4 more variables: AIC <dbl>, BIC <dbl>,
## #   deviance <dbl>, df.residual <int>

decay_coef %>%
  rename(k_total = sec)

## # A tibble: 32 x 3
## # Groups:   bin [32]
##      bin     int     k_total
##    <int>   <dbl>       <dbl>
##  1     1  1.71    0.0000243 
##  2     2  0.958   0.0000134 
##  3     3 -0.0937 -0.00000310
##  4     4 -1.68   -0.0000375 
##  5     5 -1.58   -0.0000449 
##  6     6 -0.999  -0.0000504 
##  7     7  0.835  -0.0000321 
##  8     8  0.486  -0.0000509 
##  9     9  0.401  -0.0000603 
## 10    10  0.876  -0.0000649 
## # ... with 22 more rows
…
