pumpdata
…
tidy data

## # A tibble: 226 x 12
##    rundate     t `weigh date`   seq loc      ht `Volume (mL)`
##    <chr>   <dbl> <chr>        <dbl> <chr> <int> <chr>        
##  1 sep 20    900 Oct 1            3 U         5 141          
##  2 sep 20    900 Oct 1            3 U        14 136          
##  3 sep 20    900 Oct 1            3 U        27 142          
##  4 sep 20    900 Oct 1            3 D        14 132          
##  5 sep 20    900 Oct 1            3 D        27 130          
##  6 sep 20   1200 Oct 1            4 U         5 136          
##  7 sep 20   1200 Oct 1            4 U        14 136          
##  8 sep 20   1200 Oct 1            4 U        27 136          
##  9 sep 20   1200 Oct 1            4 D         5 132          
## 10 sep 20   1200 Oct 1            4 D        14 134          
## # ... with 216 more rows, and 5 more variables: `Filter Weight
## #   (mg)` <dbl>, `Filter+Sediment Weight (mg)` <dbl>, `sediment
## #   weight` <dbl>, mvc <dbl>, ht_loc <chr>
…
