920pumpdata
…
920pumpdata

libs

load data

tidy data

## # A tibble: 30 x 10
##        t   seq loc      ht `Volume (mL)` `Filter Weight  `Filter+Sedimen
##    <dbl> <int> <chr> <int>         <dbl>            <dbl>            <dbl>
##  1    20     4 U         5           135             127.             129.
##  2    20     4 U        14           136             127.             129.
##  3    20     4 U        27           141             127.             129.
##  4    20     4 D         5           136             127.             128.
##  5    20     4 D        14           136             127.             129.
##  6    20     4 D        27           135             125.             127.
##  7    40     8 U         5           139             127.             130.
##  8    40     8 U        14           140             127.             129.
##  9    40     8 U        27           140             126.             127.
## 10    40     8 D         5           138             125.             127.
## # ... with 20 more rows, and 3 more variables: `sediment weight` <dbl>,
## #   mvc <dbl>, ht_loc <chr>
…
